(kicad_sch
	(version 20231120)
	(generator "eeschema")
	(generator_version "8.0")
	(uuid "88cf82e1-3ed0-44ee-91f8-029877a4ee69")
	(paper "A4")
	(title_block
		(title "Drive Motor DC")
		(date "2023-10-08")
		(rev "0.0.0")
	)
	(lib_symbols
		(symbol "Connector:Conn_01x10_Pin"
			(pin_names
				(offset 1.016) hide)
			(exclude_from_sim no)
			(in_bom yes)
			(on_board yes)
			(property "Reference" "J"
				(at 0 12.7 0)
				(effects
					(font
						(size 1.27 1.27)
					)
				)
			)
			(property "Value" "Conn_01x10_Pin"
				(at 0 -15.24 0)
				(effects
					(font
						(size 1.27 1.27)
					)
				)
			)
			(property "Footprint" ""
				(at 0 0 0)
				(effects
					(font
						(size 1.27 1.27)
					)
					(hide yes)
				)
			)
			(property "Datasheet" "~"
				(at 0 0 0)
				(effects
					(font
						(size 1.27 1.27)
					)
					(hide yes)
				)
			)
			(property "Description" "Generic connector, single row, 01x10, script generated"
				(at 0 0 0)
				(effects
					(font
						(size 1.27 1.27)
					)
					(hide yes)
				)
			)
			(property "ki_locked" ""
				(at 0 0 0)
				(effects
					(font
						(size 1.27 1.27)
					)
				)
			)
			(property "ki_keywords" "connector"
				(at 0 0 0)
				(effects
					(font
						(size 1.27 1.27)
					)
					(hide yes)
				)
			)
			(property "ki_fp_filters" "Connector*:*_1x??_*"
				(at 0 0 0)
				(effects
					(font
						(size 1.27 1.27)
					)
					(hide yes)
				)
			)
			(symbol "Conn_01x10_Pin_1_1"
				(polyline
					(pts
						(xy 1.27 -12.7) (xy 0.8636 -12.7)
					)
					(stroke
						(width 0.1524)
						(type default)
					)
					(fill
						(type none)
					)
				)
				(polyline
					(pts
						(xy 1.27 -10.16) (xy 0.8636 -10.16)
					)
					(stroke
						(width 0.1524)
						(type default)
					)
					(fill
						(type none)
					)
				)
				(polyline
					(pts
						(xy 1.27 -7.62) (xy 0.8636 -7.62)
					)
					(stroke
						(width 0.1524)
						(type default)
					)
					(fill
						(type none)
					)
				)
				(polyline
					(pts
						(xy 1.27 -5.08) (xy 0.8636 -5.08)
					)
					(stroke
						(width 0.1524)
						(type default)
					)
					(fill
						(type none)
					)
				)
				(polyline
					(pts
						(xy 1.27 -2.54) (xy 0.8636 -2.54)
					)
					(stroke
						(width 0.1524)
						(type default)
					)
					(fill
						(type none)
					)
				)
				(polyline
					(pts
						(xy 1.27 0) (xy 0.8636 0)
					)
					(stroke
						(width 0.1524)
						(type default)
					)
					(fill
						(type none)
					)
				)
				(polyline
					(pts
						(xy 1.27 2.54) (xy 0.8636 2.54)
					)
					(stroke
						(width 0.1524)
						(type default)
					)
					(fill
						(type none)
					)
				)
				(polyline
					(pts
						(xy 1.27 5.08) (xy 0.8636 5.08)
					)
					(stroke
						(width 0.1524)
						(type default)
					)
					(fill
						(type none)
					)
				)
				(polyline
					(pts
						(xy 1.27 7.62) (xy 0.8636 7.62)
					)
					(stroke
						(width 0.1524)
						(type default)
					)
					(fill
						(type none)
					)
				)
				(polyline
					(pts
						(xy 1.27 10.16) (xy 0.8636 10.16)
					)
					(stroke
						(width 0.1524)
						(type default)
					)
					(fill
						(type none)
					)
				)
				(rectangle
					(start 0.8636 -12.573)
					(end 0 -12.827)
					(stroke
						(width 0.1524)
						(type default)
					)
					(fill
						(type outline)
					)
				)
				(rectangle
					(start 0.8636 -10.033)
					(end 0 -10.287)
					(stroke
						(width 0.1524)
						(type default)
					)
					(fill
						(type outline)
					)
				)
				(rectangle
					(start 0.8636 -7.493)
					(end 0 -7.747)
					(stroke
						(width 0.1524)
						(type default)
					)
					(fill
						(type outline)
					)
				)
				(rectangle
					(start 0.8636 -4.953)
					(end 0 -5.207)
					(stroke
						(width 0.1524)
						(type default)
					)
					(fill
						(type outline)
					)
				)
				(rectangle
					(start 0.8636 -2.413)
					(end 0 -2.667)
					(stroke
						(width 0.1524)
						(type default)
					)
					(fill
						(type outline)
					)
				)
				(rectangle
					(start 0.8636 0.127)
					(end 0 -0.127)
					(stroke
						(width 0.1524)
						(type default)
					)
					(fill
						(type outline)
					)
				)
				(rectangle
					(start 0.8636 2.667)
					(end 0 2.413)
					(stroke
						(width 0.1524)
						(type default)
					)
					(fill
						(type outline)
					)
				)
				(rectangle
					(start 0.8636 5.207)
					(end 0 4.953)
					(stroke
						(width 0.1524)
						(type default)
					)
					(fill
						(type outline)
					)
				)
				(rectangle
					(start 0.8636 7.747)
					(end 0 7.493)
					(stroke
						(width 0.1524)
						(type default)
					)
					(fill
						(type outline)
					)
				)
				(rectangle
					(start 0.8636 10.287)
					(end 0 10.033)
					(stroke
						(width 0.1524)
						(type default)
					)
					(fill
						(type outline)
					)
				)
				(pin passive line
					(at 5.08 10.16 180)
					(length 3.81)
					(name "Pin_1"
						(effects
							(font
								(size 1.27 1.27)
							)
						)
					)
					(number "1"
						(effects
							(font
								(size 1.27 1.27)
							)
						)
					)
				)
				(pin passive line
					(at 5.08 -12.7 180)
					(length 3.81)
					(name "Pin_10"
						(effects
							(font
								(size 1.27 1.27)
							)
						)
					)
					(number "10"
						(effects
							(font
								(size 1.27 1.27)
							)
						)
					)
				)
				(pin passive line
					(at 5.08 7.62 180)
					(length 3.81)
					(name "Pin_2"
						(effects
							(font
								(size 1.27 1.27)
							)
						)
					)
					(number "2"
						(effects
							(font
								(size 1.27 1.27)
							)
						)
					)
				)
				(pin passive line
					(at 5.08 5.08 180)
					(length 3.81)
					(name "Pin_3"
						(effects
							(font
								(size 1.27 1.27)
							)
						)
					)
					(number "3"
						(effects
							(font
								(size 1.27 1.27)
							)
						)
					)
				)
				(pin passive line
					(at 5.08 2.54 180)
					(length 3.81)
					(name "Pin_4"
						(effects
							(font
								(size 1.27 1.27)
							)
						)
					)
					(number "4"
						(effects
							(font
								(size 1.27 1.27)
							)
						)
					)
				)
				(pin passive line
					(at 5.08 0 180)
					(length 3.81)
					(name "Pin_5"
						(effects
							(font
								(size 1.27 1.27)
							)
						)
					)
					(number "5"
						(effects
							(font
								(size 1.27 1.27)
							)
						)
					)
				)
				(pin passive line
					(at 5.08 -2.54 180)
					(length 3.81)
					(name "Pin_6"
						(effects
							(font
								(size 1.27 1.27)
							)
						)
					)
					(number "6"
						(effects
							(font
								(size 1.27 1.27)
							)
						)
					)
				)
				(pin passive line
					(at 5.08 -5.08 180)
					(length 3.81)
					(name "Pin_7"
						(effects
							(font
								(size 1.27 1.27)
							)
						)
					)
					(number "7"
						(effects
							(font
								(size 1.27 1.27)
							)
						)
					)
				)
				(pin passive line
					(at 5.08 -7.62 180)
					(length 3.81)
					(name "Pin_8"
						(effects
							(font
								(size 1.27 1.27)
							)
						)
					)
					(number "8"
						(effects
							(font
								(size 1.27 1.27)
							)
						)
					)
				)
				(pin passive line
					(at 5.08 -10.16 180)
					(length 3.81)
					(name "Pin_9"
						(effects
							(font
								(size 1.27 1.27)
							)
						)
					)
					(number "9"
						(effects
							(font
								(size 1.27 1.27)
							)
						)
					)
				)
			)
		)
	)
	(no_connect
		(at 163.83 72.39)
		(uuid "5379c640-fadb-4349-97af-b78fec10516b")
	)
	(no_connect
		(at 163.83 59.69)
		(uuid "80cf2d99-0e51-4919-b5f2-4a626e90ea35")
	)
	(no_connect
		(at 163.83 69.85)
		(uuid "a163c9d4-c479-4017-b64a-6b9dda87443b")
	)
	(no_connect
		(at 163.83 64.77)
		(uuid "a2f610db-9964-4df1-8c6d-b7fb6deabf02")
	)
	(no_connect
		(at 163.83 62.23)
		(uuid "aac61db1-d386-4f73-b3c4-ffeffff000a2")
	)
	(wire
		(pts
			(xy 163.83 67.31) (xy 167.64 67.31)
		)
		(stroke
			(width 0)
			(type default)
		)
		(uuid "304fa53e-359c-43dd-9c53-819daf8c7f4a")
	)
	(wire
		(pts
			(xy 163.83 74.93) (xy 167.64 74.93)
		)
		(stroke
			(width 0)
			(type default)
		)
		(uuid "3c8a6570-4171-4b6d-9d02-5edfed90df4c")
	)
	(wire
		(pts
			(xy 163.83 80.01) (xy 167.64 80.01)
		)
		(stroke
			(width 0)
			(type default)
		)
		(uuid "8af659e8-9206-487a-8c49-8c61080d4033")
	)
	(wire
		(pts
			(xy 163.83 82.55) (xy 167.64 82.55)
		)
		(stroke
			(width 0)
			(type default)
		)
		(uuid "99cc893f-4232-4b69-85e3-e9de143efb1c")
	)
	(wire
		(pts
			(xy 163.83 77.47) (xy 167.64 77.47)
		)
		(stroke
			(width 0)
			(type default)
		)
		(uuid "9ada11c1-77ce-49f1-9fa3-bf599f5a9f17")
	)
	(hierarchical_label "IN2"
		(shape output)
		(at 167.64 77.47 0)
		(fields_autoplaced yes)
		(effects
			(font
				(size 1.27 1.27)
			)
			(justify left)
		)
		(uuid "16776bc2-b7ec-4996-acb9-a5e9a4c8b6ea")
	)
	(hierarchical_label "IN4"
		(shape output)
		(at 167.64 82.55 0)
		(fields_autoplaced yes)
		(effects
			(font
				(size 1.27 1.27)
			)
			(justify left)
		)
		(uuid "499ec9a1-167d-4821-a235-ceb223ec2d69")
	)
	(hierarchical_label "GND"
		(shape input)
		(at 167.64 67.31 0)
		(fields_autoplaced yes)
		(effects
			(font
				(size 1.27 1.27)
			)
			(justify left)
		)
		(uuid "5851dfdc-2fef-46a3-94c1-4c1105e4ec25")
	)
	(hierarchical_label "IN3"
		(shape output)
		(at 167.64 80.01 0)
		(fields_autoplaced yes)
		(effects
			(font
				(size 1.27 1.27)
			)
			(justify left)
		)
		(uuid "5de409f0-ece4-471f-94ba-1c1b4ad954d9")
	)
	(hierarchical_label "IN1"
		(shape output)
		(at 167.64 74.93 0)
		(fields_autoplaced yes)
		(effects
			(font
				(size 1.27 1.27)
			)
			(justify left)
		)
		(uuid "7df2218d-2eae-44dc-9578-c030e50befbb")
	)
	(symbol
		(lib_id "Connector:Conn_01x10_Pin")
		(at 158.75 69.85 0)
		(unit 1)
		(exclude_from_sim no)
		(in_bom yes)
		(on_board yes)
		(dnp no)
		(fields_autoplaced yes)
		(uuid "a64355ee-23e7-4111-8f02-bb368c3b454d")
		(property "Reference" "J6"
			(at 159.385 54.61 0)
			(effects
				(font
					(size 1.27 1.27)
				)
			)
		)
		(property "Value" "Conn_01x10_Pin"
			(at 159.385 57.15 0)
			(effects
				(font
					(size 1.27 1.27)
				)
			)
		)
		(property "Footprint" "Connector_PinHeader_2.54mm:PinHeader_1x10_P2.54mm_Vertical"
			(at 158.75 69.85 0)
			(effects
				(font
					(size 1.27 1.27)
				)
				(hide yes)
			)
		)
		(property "Datasheet" "-"
			(at 158.75 69.85 0)
			(effects
				(font
					(size 1.27 1.27)
				)
				(hide yes)
			)
		)
		(property "Description" ""
			(at 158.75 69.85 0)
			(effects
				(font
					(size 1.27 1.27)
				)
				(hide yes)
			)
		)
		(property "Current" "-"
			(at 158.75 69.85 0)
			(effects
				(font
					(size 1.27 1.27)
				)
				(hide yes)
			)
		)
		(property "PartNumb" "-"
			(at 158.75 69.85 0)
			(effects
				(font
					(size 1.27 1.27)
				)
				(hide yes)
			)
		)
		(property "Price" "265,74"
			(at 158.75 69.85 0)
			(effects
				(font
					(size 1.27 1.27)
				)
				(hide yes)
			)
		)
		(property "Shop" "MicroJPM"
			(at 158.75 69.85 0)
			(effects
				(font
					(size 1.27 1.27)
				)
				(hide yes)
			)
		)
		(property "Voltage" "-"
			(at 158.75 69.85 0)
			(effects
				(font
					(size 1.27 1.27)
				)
				(hide yes)
			)
		)
		(property "Link" "-"
			(at 158.75 69.85 0)
			(effects
				(font
					(size 1.27 1.27)
				)
				(hide yes)
			)
		)
		(pin "1"
			(uuid "f8a7686a-441c-44f6-afe7-cafa9d21c94a")
		)
		(pin "10"
			(uuid "d1e3a447-c792-4aa9-864a-de1c6b79468d")
		)
		(pin "2"
			(uuid "d5e8452b-5235-4a68-adf2-0a8761f48354")
		)
		(pin "3"
			(uuid "d324e052-5e4e-48f3-bdd7-a5ed11e73ccf")
		)
		(pin "4"
			(uuid "cc03836b-fef7-4d2d-8730-71dbfbac49ca")
		)
		(pin "5"
			(uuid "0261fe5b-54ec-4f4e-b853-8d707d49f95b")
		)
		(pin "6"
			(uuid "f37a4d27-2a24-49a2-bb72-7db678ed2a17")
		)
		(pin "7"
			(uuid "d97133d2-05c6-4688-a28f-bce06b66a69f")
		)
		(pin "8"
			(uuid "a55766c3-8370-4073-9bbc-e0bc059d303d")
		)
		(pin "9"
			(uuid "60456f19-e4c5-4277-a89e-c73a2f01197b")
		)
		(instances
			(project "Driver de motor DC"
				(path "/06ae8858-7391-4dde-9e8b-7b3f3b49b0ac/c4edc9d0-45e0-450f-81f1-7306e5cc5f00"
					(reference "J6")
					(unit 1)
				)
			)
		)
	)
)