(kicad_sch
	(version 20231120)
	(generator "eeschema")
	(generator_version "8.0")
	(uuid "5253dbc4-ed71-4fe7-b674-cff4664a6c73")
	(paper "A4")
	(title_block
		(title "Drive Motor DC")
		(date "2023-10-08")
		(rev "0.0.0")
	)
	(lib_symbols
		(symbol "Connector:Conn_01x08_Pin"
			(pin_names
				(offset 1.016) hide)
			(exclude_from_sim no)
			(in_bom yes)
			(on_board yes)
			(property "Reference" "J"
				(at 0 10.16 0)
				(effects
					(font
						(size 1.27 1.27)
					)
				)
			)
			(property "Value" "Conn_01x08_Pin"
				(at 0 -12.7 0)
				(effects
					(font
						(size 1.27 1.27)
					)
				)
			)
			(property "Footprint" ""
				(at 0 0 0)
				(effects
					(font
						(size 1.27 1.27)
					)
					(hide yes)
				)
			)
			(property "Datasheet" "~"
				(at 0 0 0)
				(effects
					(font
						(size 1.27 1.27)
					)
					(hide yes)
				)
			)
			(property "Description" "Generic connector, single row, 01x08, script generated"
				(at 0 0 0)
				(effects
					(font
						(size 1.27 1.27)
					)
					(hide yes)
				)
			)
			(property "ki_locked" ""
				(at 0 0 0)
				(effects
					(font
						(size 1.27 1.27)
					)
				)
			)
			(property "ki_keywords" "connector"
				(at 0 0 0)
				(effects
					(font
						(size 1.27 1.27)
					)
					(hide yes)
				)
			)
			(property "ki_fp_filters" "Connector*:*_1x??_*"
				(at 0 0 0)
				(effects
					(font
						(size 1.27 1.27)
					)
					(hide yes)
				)
			)
			(symbol "Conn_01x08_Pin_1_1"
				(polyline
					(pts
						(xy 1.27 -10.16) (xy 0.8636 -10.16)
					)
					(stroke
						(width 0.1524)
						(type default)
					)
					(fill
						(type none)
					)
				)
				(polyline
					(pts
						(xy 1.27 -7.62) (xy 0.8636 -7.62)
					)
					(stroke
						(width 0.1524)
						(type default)
					)
					(fill
						(type none)
					)
				)
				(polyline
					(pts
						(xy 1.27 -5.08) (xy 0.8636 -5.08)
					)
					(stroke
						(width 0.1524)
						(type default)
					)
					(fill
						(type none)
					)
				)
				(polyline
					(pts
						(xy 1.27 -2.54) (xy 0.8636 -2.54)
					)
					(stroke
						(width 0.1524)
						(type default)
					)
					(fill
						(type none)
					)
				)
				(polyline
					(pts
						(xy 1.27 0) (xy 0.8636 0)
					)
					(stroke
						(width 0.1524)
						(type default)
					)
					(fill
						(type none)
					)
				)
				(polyline
					(pts
						(xy 1.27 2.54) (xy 0.8636 2.54)
					)
					(stroke
						(width 0.1524)
						(type default)
					)
					(fill
						(type none)
					)
				)
				(polyline
					(pts
						(xy 1.27 5.08) (xy 0.8636 5.08)
					)
					(stroke
						(width 0.1524)
						(type default)
					)
					(fill
						(type none)
					)
				)
				(polyline
					(pts
						(xy 1.27 7.62) (xy 0.8636 7.62)
					)
					(stroke
						(width 0.1524)
						(type default)
					)
					(fill
						(type none)
					)
				)
				(rectangle
					(start 0.8636 -10.033)
					(end 0 -10.287)
					(stroke
						(width 0.1524)
						(type default)
					)
					(fill
						(type outline)
					)
				)
				(rectangle
					(start 0.8636 -7.493)
					(end 0 -7.747)
					(stroke
						(width 0.1524)
						(type default)
					)
					(fill
						(type outline)
					)
				)
				(rectangle
					(start 0.8636 -4.953)
					(end 0 -5.207)
					(stroke
						(width 0.1524)
						(type default)
					)
					(fill
						(type outline)
					)
				)
				(rectangle
					(start 0.8636 -2.413)
					(end 0 -2.667)
					(stroke
						(width 0.1524)
						(type default)
					)
					(fill
						(type outline)
					)
				)
				(rectangle
					(start 0.8636 0.127)
					(end 0 -0.127)
					(stroke
						(width 0.1524)
						(type default)
					)
					(fill
						(type outline)
					)
				)
				(rectangle
					(start 0.8636 2.667)
					(end 0 2.413)
					(stroke
						(width 0.1524)
						(type default)
					)
					(fill
						(type outline)
					)
				)
				(rectangle
					(start 0.8636 5.207)
					(end 0 4.953)
					(stroke
						(width 0.1524)
						(type default)
					)
					(fill
						(type outline)
					)
				)
				(rectangle
					(start 0.8636 7.747)
					(end 0 7.493)
					(stroke
						(width 0.1524)
						(type default)
					)
					(fill
						(type outline)
					)
				)
				(pin passive line
					(at 5.08 7.62 180)
					(length 3.81)
					(name "Pin_1"
						(effects
							(font
								(size 1.27 1.27)
							)
						)
					)
					(number "1"
						(effects
							(font
								(size 1.27 1.27)
							)
						)
					)
				)
				(pin passive line
					(at 5.08 5.08 180)
					(length 3.81)
					(name "Pin_2"
						(effects
							(font
								(size 1.27 1.27)
							)
						)
					)
					(number "2"
						(effects
							(font
								(size 1.27 1.27)
							)
						)
					)
				)
				(pin passive line
					(at 5.08 2.54 180)
					(length 3.81)
					(name "Pin_3"
						(effects
							(font
								(size 1.27 1.27)
							)
						)
					)
					(number "3"
						(effects
							(font
								(size 1.27 1.27)
							)
						)
					)
				)
				(pin passive line
					(at 5.08 0 180)
					(length 3.81)
					(name "Pin_4"
						(effects
							(font
								(size 1.27 1.27)
							)
						)
					)
					(number "4"
						(effects
							(font
								(size 1.27 1.27)
							)
						)
					)
				)
				(pin passive line
					(at 5.08 -2.54 180)
					(length 3.81)
					(name "Pin_5"
						(effects
							(font
								(size 1.27 1.27)
							)
						)
					)
					(number "5"
						(effects
							(font
								(size 1.27 1.27)
							)
						)
					)
				)
				(pin passive line
					(at 5.08 -5.08 180)
					(length 3.81)
					(name "Pin_6"
						(effects
							(font
								(size 1.27 1.27)
							)
						)
					)
					(number "6"
						(effects
							(font
								(size 1.27 1.27)
							)
						)
					)
				)
				(pin passive line
					(at 5.08 -7.62 180)
					(length 3.81)
					(name "Pin_7"
						(effects
							(font
								(size 1.27 1.27)
							)
						)
					)
					(number "7"
						(effects
							(font
								(size 1.27 1.27)
							)
						)
					)
				)
				(pin passive line
					(at 5.08 -10.16 180)
					(length 3.81)
					(name "Pin_8"
						(effects
							(font
								(size 1.27 1.27)
							)
						)
					)
					(number "8"
						(effects
							(font
								(size 1.27 1.27)
							)
						)
					)
				)
			)
		)
	)
	(no_connect
		(at 146.05 96.52)
		(uuid "fa4b75d3-a29f-4bb7-920e-8ecd6e850651")
	)
	(no_connect
		(at 146.05 93.98)
		(uuid "fe03646a-8a3a-48ee-9c36-6adaa7bfbff2")
	)
	(wire
		(pts
			(xy 146.05 91.44) (xy 152.4 91.44)
		)
		(stroke
			(width 0)
			(type default)
		)
		(uuid "4c520153-eabe-4414-be8a-573937ba4de2")
	)
	(wire
		(pts
			(xy 146.05 78.74) (xy 152.4 78.74)
		)
		(stroke
			(width 0)
			(type default)
		)
		(uuid "51d4b7f9-bd95-4242-94d9-ceaba5aa08f4")
	)
	(wire
		(pts
			(xy 146.05 81.28) (xy 152.4 81.28)
		)
		(stroke
			(width 0)
			(type default)
		)
		(uuid "61a08b1d-3eb8-4138-8cfc-aa67f98b346f")
	)
	(wire
		(pts
			(xy 146.05 86.36) (xy 152.4 86.36)
		)
		(stroke
			(width 0)
			(type default)
		)
		(uuid "68367ce2-8679-4aa5-8082-27cf4285ca75")
	)
	(wire
		(pts
			(xy 146.05 88.9) (xy 152.4 88.9)
		)
		(stroke
			(width 0)
			(type default)
		)
		(uuid "8049f746-f0d3-4c71-a979-51eb02243556")
	)
	(wire
		(pts
			(xy 146.05 83.82) (xy 152.4 83.82)
		)
		(stroke
			(width 0)
			(type default)
		)
		(uuid "83ae849e-a221-4714-98dd-ad812581ab1d")
	)
	(hierarchical_label "ENB"
		(shape output)
		(at 152.4 83.82 0)
		(fields_autoplaced yes)
		(effects
			(font
				(size 1.27 1.27)
			)
			(justify left)
		)
		(uuid "0209f5cd-4f6f-473d-97f1-753a552e2132")
	)
	(hierarchical_label "LED ROJO"
		(shape output)
		(at 152.4 86.36 0)
		(fields_autoplaced yes)
		(effects
			(font
				(size 1.27 1.27)
				(color 255 9 0 1)
			)
			(justify left)
		)
		(uuid "1aea3a40-5153-4c39-b712-d6be2b0f6e76")
	)
	(hierarchical_label "ENA"
		(shape output)
		(at 152.4 81.28 0)
		(fields_autoplaced yes)
		(effects
			(font
				(size 1.27 1.27)
			)
			(justify left)
		)
		(uuid "794676e3-0b4f-4ab6-bab8-099e647b41ae")
	)
	(hierarchical_label "LED VERDE"
		(shape output)
		(at 152.4 88.9 0)
		(fields_autoplaced yes)
		(effects
			(font
				(size 1.27 1.27)
				(color 25 255 65 1)
			)
			(justify left)
		)
		(uuid "899e8826-676c-4832-b178-1b054b32db11")
	)
	(hierarchical_label "LED AZUL"
		(shape output)
		(at 152.4 91.44 0)
		(fields_autoplaced yes)
		(effects
			(font
				(size 1.27 1.27)
				(color 0 14 255 1)
			)
			(justify left)
		)
		(uuid "ba444f05-c754-4fa9-b79b-6a5e5b9bcc0e")
	)
	(hierarchical_label "IR"
		(shape input)
		(at 152.4 78.74 0)
		(fields_autoplaced yes)
		(effects
			(font
				(size 1.27 1.27)
			)
			(justify left)
		)
		(uuid "eeb96814-6427-4629-84ed-149eebe1b63b")
	)
	(symbol
		(lib_id "Connector:Conn_01x08_Pin")
		(at 140.97 86.36 0)
		(unit 1)
		(exclude_from_sim no)
		(in_bom yes)
		(on_board yes)
		(dnp no)
		(fields_autoplaced yes)
		(uuid "8b2313e6-9e2d-4e6a-b107-4fc6615dee56")
		(property "Reference" "J3"
			(at 141.605 73.66 0)
			(effects
				(font
					(size 1.27 1.27)
				)
			)
		)
		(property "Value" "Conn_01x08_Pin"
			(at 141.605 76.2 0)
			(effects
				(font
					(size 1.27 1.27)
				)
			)
		)
		(property "Footprint" "Connector_PinHeader_2.54mm:PinHeader_1x08_P2.54mm_Vertical"
			(at 140.97 86.36 0)
			(effects
				(font
					(size 1.27 1.27)
				)
				(hide yes)
			)
		)
		(property "Datasheet" "-"
			(at 140.97 86.36 0)
			(effects
				(font
					(size 1.27 1.27)
				)
				(hide yes)
			)
		)
		(property "Description" ""
			(at 140.97 86.36 0)
			(effects
				(font
					(size 1.27 1.27)
				)
				(hide yes)
			)
		)
		(property "Current" "-"
			(at 140.97 86.36 0)
			(effects
				(font
					(size 1.27 1.27)
				)
				(hide yes)
			)
		)
		(property "PartNumb" "-"
			(at 140.97 86.36 0)
			(effects
				(font
					(size 1.27 1.27)
				)
				(hide yes)
			)
		)
		(property "Price" "265,74"
			(at 140.97 86.36 0)
			(effects
				(font
					(size 1.27 1.27)
				)
				(hide yes)
			)
		)
		(property "Shop" "MicroJPM"
			(at 140.97 86.36 0)
			(effects
				(font
					(size 1.27 1.27)
				)
				(hide yes)
			)
		)
		(property "Voltage" "-"
			(at 140.97 86.36 0)
			(effects
				(font
					(size 1.27 1.27)
				)
				(hide yes)
			)
		)
		(property "Link" "-"
			(at 140.97 86.36 0)
			(effects
				(font
					(size 1.27 1.27)
				)
				(hide yes)
			)
		)
		(pin "1"
			(uuid "d6109313-1a10-4157-946e-3ed3af379dad")
		)
		(pin "2"
			(uuid "fdae0a5b-2f2e-45ed-af8a-61f6a2ca26f4")
		)
		(pin "3"
			(uuid "4ae00125-b22d-4e88-94cd-2494c34e2d5f")
		)
		(pin "4"
			(uuid "2104239d-291d-4e60-9578-06bf877fba87")
		)
		(pin "5"
			(uuid "b15c37d8-06a4-4b17-bca6-613515b2025d")
		)
		(pin "6"
			(uuid "e3b9e208-1a17-4f9b-aa75-c561ac7393ac")
		)
		(pin "7"
			(uuid "90a31e6f-d6c6-4bfb-8e4a-fced742f4ebc")
		)
		(pin "8"
			(uuid "2841f1d0-0623-47fa-b85e-e7540a49ceb9")
		)
		(instances
			(project "Driver de motor DC"
				(path "/06ae8858-7391-4dde-9e8b-7b3f3b49b0ac/43e17dce-714b-4967-93af-9106af1e6b6d"
					(reference "J3")
					(unit 1)
				)
			)
			(project "kicad en windows"
				(path "/3aaf0039-7135-4a16-b76f-3fbfe95a5c37"
					(reference "J3")
					(unit 1)
				)
				(path "/3aaf0039-7135-4a16-b76f-3fbfe95a5c37/3d8705ea-1149-483a-b685-5cdeb9d82fb8"
					(reference "J4")
					(unit 1)
				)
			)
		)
	)
)